<svg width="78" height="78" viewBox="0 0 78 78" fill="none" xmlns="http://www.w3.org/2000/svg">
<path d="M78 39C78 60.5419 60.5419 78 39 78C17.4581 78 0 60.5419 0 39C0 17.4581 17.4581 0 39 0C60.5419 0 78 17.4581 78 39Z" fill="#395398"/>
<path d="M41.2932 69.1571V43.4529H49.9162L51.2042 33.4398H41.2853V27.0471C41.2853 24.1492 42.0864 22.1702 46.2487 22.1702H51.5497V13.2094C50.6309 13.0838 47.4817 12.8168 43.822 12.8168C36.1728 12.8168 30.9424 17.4817 30.9424 26.0576V33.4477H22.2958V43.4607H30.9424V69.1649H41.2932V69.1571Z" fill="white"/>
</svg>
