<svg width="523" height="524" viewBox="0 0 523 524" fill="none" xmlns="http://www.w3.org/2000/svg">
<path opacity="0.3" d="M459.028 448.263C448.367 459.486 438.279 466.726 430.308 472.444C336.62 539.666 225.761 520.072 202.201 515.286C167.41 508.22 100.159 494.562 51.5357 437.383C-22.0257 350.878 -10.5708 214.592 46.4889 124.626C56.9265 108.17 112.057 16.8342 224.11 2.18851C291.923 -6.67526 370.971 11.2027 428.216 59.1618C548.376 159.831 539.823 363.207 459.028 448.263Z" fill="url(#paint0_linear_50_380)"/>
<path d="M7.99713 120.973C7.70757 120.864 7.49321 120.597 7.46877 120.275C7.3898 119.211 7.33151 118.128 7.29578 117.056C7.28074 116.616 7.63236 116.253 8.07987 116.246C9.16669 116.221 8.87147 117.304 9.08771 120.183C9.12155 120.623 8.78498 121.001 8.33747 121.026C8.21901 121.031 8.10243 121.012 7.99713 120.973Z" fill="#00ABE4"/>
<path d="M7.61901 107.025C7.81832 104.985 8.10224 102.928 8.46326 100.912C8.54036 100.48 8.96155 100.196 9.40342 100.278C10.6049 100.512 9.82085 101.189 9.23607 107.2C9.19283 107.638 8.79796 107.954 8.35044 107.905C7.89729 107.856 7.57576 107.458 7.61901 107.025ZM10.855 91.1891C11.4736 89.2261 12.1825 87.2517 12.9365 85.3883C13.3408 84.3861 14.8356 85.0386 14.4464 85.9976C13.6943 87.8553 13.0117 89.7601 12.4063 91.6817C12.2746 92.101 11.8196 92.3304 11.3909 92.1932C10.9584 92.0559 10.7253 91.6046 10.855 91.1891ZM17.2838 76.3704C18.2897 74.5879 19.3822 72.8241 20.5292 71.1262C21.1215 70.2519 22.4734 71.1525 21.8849 72.0231C20.7605 73.6872 19.6906 75.4152 18.7053 77.1601C18.1863 78.0796 16.7648 77.2861 17.2838 76.3704ZM26.7662 64.3252C26.4258 64.0337 26.3863 63.5298 26.6797 63.1989C28.0391 61.6626 29.4813 60.1603 30.963 58.735C31.7245 58.0017 32.8696 59.1506 32.1081 59.8839C30.6565 61.2809 29.2444 62.7532 27.9113 64.2575C27.6179 64.5865 27.1046 64.6166 26.7662 64.3252ZM38.4993 53.3498C38.2266 52.9963 38.2924 52.4961 38.6478 52.2329C40.3025 51.0051 42.0286 49.828 43.7773 48.7337C44.678 48.1733 45.5636 49.5196 44.6648 50.0837C42.9518 51.1574 41.2614 52.31 39.6387 53.5134C39.2834 53.7766 38.7738 53.7033 38.4993 53.3498ZM52.7369 45.3886C52.547 45.3171 52.3834 45.1761 52.2876 44.9824C52.092 44.5838 52.2593 44.1081 52.6636 43.922C54.5439 43.0533 56.4806 42.2466 58.4211 41.5264C58.8385 41.3723 59.3086 41.5791 59.4741 41.9928C59.6377 42.4045 59.4327 42.8652 59.0153 43.0194C57.1143 43.7245 55.2152 44.5161 53.3725 45.3679C53.1657 45.4638 52.9363 45.4638 52.7369 45.3886ZM68.0577 40.12C67.8151 40.0278 67.6196 39.8248 67.5519 39.5596C67.4428 39.1309 67.7061 38.7003 68.1404 38.5988C70.1636 38.125 72.232 37.7263 74.289 37.4105C74.7309 37.3409 75.1502 37.6398 75.2254 38.0761C75.3006 38.5104 75.0035 38.9185 74.5617 38.9862C72.546 39.2945 70.519 39.6875 68.5372 40.1501C68.3717 40.1896 68.2062 40.1764 68.0577 40.12ZM83.6661 37.3202C83.6473 36.8802 83.9952 36.5135 84.4427 36.5023C86.5261 36.4477 88.6414 36.4741 90.7285 36.5794C91.8041 36.6376 91.7383 38.2265 90.6684 38.172C88.6226 38.0686 86.5505 38.0422 84.5085 38.0968C84.0647 38.108 83.6849 37.7621 83.6661 37.3202ZM135.66 54.651C130.8 50.9393 129.705 50.9994 130.373 49.9916C130.615 49.6249 131.118 49.5271 131.494 49.7697C133.248 50.9073 134.982 52.1276 136.642 53.3968C137.497 54.0474 136.516 55.3035 135.66 54.651ZM99.9571 38.3807C100.03 37.9463 100.448 37.6587 100.89 37.7376C102.947 38.1024 105.019 38.5518 107.046 39.0745C108.088 39.3434 107.698 40.8853 106.658 40.6183C104.671 40.1068 102.64 39.6668 100.625 39.3077C100.179 39.2287 99.8856 38.8094 99.9571 38.3807ZM121.874 46.1802C116.372 43.5214 115.302 43.7941 115.744 42.6678C116.024 41.9533 116.891 42.2203 116.793 42.224C118.747 42.9912 120.691 43.8411 122.572 44.7493C122.976 44.9448 123.147 45.4243 122.955 45.8192C122.771 46.1952 122.305 46.3814 121.874 46.1802Z" fill="#00ABE4"/>
<path d="M145.491 63.5412C143.627 61.55 142.471 60.8749 143.246 60.1153C143.56 59.8069 144.075 59.8088 144.393 60.1266C146.403 62.1084 147.411 62.8982 146.638 63.5957C146.406 63.8063 145.797 63.8665 145.491 63.5412Z" fill="#00ABE4"/>
<path d="M167.199 121.686C166.874 121.563 166.65 121.244 166.671 120.887C166.727 119.839 166.763 118.777 166.774 117.733C166.78 117.293 167.146 116.945 167.596 116.957C168.043 116.97 168.402 117.335 168.397 117.777C168.384 118.843 168.348 119.926 168.29 120.996C168.265 121.436 167.883 121.767 167.436 121.738C167.353 121.733 167.274 121.714 167.199 121.686Z" fill="#00ABE4"/>
<path d="M57.7464 188.681C55.6593 187.827 53.5815 186.876 51.5752 185.855C51.1747 185.652 51.013 185.169 51.2142 184.779C51.7821 183.679 52.2427 184.712 58.3519 187.211C58.7674 187.38 58.9705 187.848 58.8031 188.254C58.5098 188.965 57.6486 188.685 57.7464 188.681ZM67.6142 191.199C67.9226 190.001 68.6315 190.917 75.0903 192.058C75.5341 192.133 75.8312 192.551 75.7597 192.985C75.6864 193.419 75.269 193.707 74.8271 193.628C72.6159 193.237 70.3877 192.748 68.2028 192.175C67.7666 192.06 67.5071 191.622 67.6142 191.199ZM42.1098 180.21C40.2596 178.93 38.4413 177.555 36.702 176.126C36.356 175.842 36.3053 175.338 36.5911 175.002C37.394 174.054 37.6102 175.158 43.0311 178.911C43.3997 179.167 43.4937 179.665 43.2398 180.024C42.9841 180.381 42.4802 180.464 42.1098 180.21ZM85.511 194.762C85.1932 194.642 84.9713 194.335 84.9807 193.985C84.992 193.545 85.3643 193.203 85.8137 193.222C88.0193 193.31 90.2494 193.308 92.4437 193.214C92.8931 193.196 93.2748 193.536 93.3011 193.976C93.3274 194.416 92.9871 194.788 92.5396 194.807C90.3001 194.903 88.0231 194.905 85.7724 194.815C85.6802 194.811 85.5919 194.792 85.511 194.762ZM102.996 193.559C102.74 193.463 102.537 193.241 102.481 192.957C102.394 192.524 102.68 192.109 103.12 192.028C105.279 191.641 107.447 191.156 109.564 190.588C109.994 190.473 110.444 190.723 110.568 191.148C110.692 191.573 110.442 192.011 110.011 192.128C107.849 192.707 105.638 193.201 103.434 193.598C103.282 193.626 103.131 193.611 102.996 193.559ZM119.734 188.61C119.535 188.534 119.366 188.384 119.274 188.177C119.093 187.771 119.278 187.303 119.687 187.132C121.701 186.287 123.704 185.347 125.637 184.339C126.03 184.134 126.522 184.285 126.739 184.674C126.953 185.063 126.808 185.547 126.415 185.752C124.441 186.78 122.399 187.739 120.344 188.602C120.142 188.685 119.924 188.681 119.734 188.61ZM134.922 180.175C134.779 180.12 134.647 180.026 134.549 179.894C134.284 179.535 134.359 179.037 134.72 178.781C136.494 177.523 138.233 176.175 139.889 174.772C140.226 174.487 140.739 174.528 141.035 174.865C141.33 175.201 141.296 175.703 140.959 175.989C139.267 177.42 137.494 178.796 135.683 180.081C135.456 180.242 135.168 180.269 134.922 180.175ZM147.574 168.509C146.623 167.684 147.743 167.518 151.624 162.344C152.256 161.501 153.569 162.46 152.935 163.303C151.611 165.068 150.192 166.798 148.717 168.447C148.426 168.772 147.915 168.804 147.574 168.509ZM157.692 154.544C156.581 153.942 157.628 153.546 160.246 147.634C160.671 146.675 162.164 147.326 161.735 148.288C160.842 150.306 159.851 152.305 158.79 154.234C158.576 154.625 158.078 154.755 157.692 154.544ZM164.341 138.674C163.948 138.526 163.726 138.105 163.841 137.704C164.437 135.619 164.95 133.49 165.362 131.381C165.447 130.95 165.872 130.672 166.312 130.762C166.753 130.854 167.039 131.273 166.955 131.706C166.532 133.859 166.011 136.031 165.401 138.157C165.281 138.58 164.834 138.821 164.401 138.695C164.382 138.689 164.362 138.682 164.341 138.674Z" fill="#00ABE4"/>
<path d="M28.6693 168.551C26.7495 166.478 25.7812 165.645 26.5878 164.984C27.4264 164.295 27.8965 165.363 29.8614 167.486C30.1661 167.815 30.1454 168.319 29.8144 168.613C29.4854 168.906 28.9721 168.878 28.6693 168.551Z" fill="#00ABE4"/>
<path d="M37.5424 148.384L49.0762 146.955C52.5905 151.088 56.791 154.711 61.584 157.628C62.0333 168.75 61.2775 169.562 62.4658 169.957L75.7596 174.385C76.1488 174.515 76.5737 174.389 76.8182 174.071L83.8186 165.034C89.3974 165.574 94.9255 165.192 100.205 163.989L108.597 172.055C108.891 172.337 109.332 172.409 109.697 172.232L122.141 166.17C122.504 165.993 122.711 165.606 122.653 165.209L121.024 153.848C125.176 150.456 128.799 146.38 131.693 141.713L143.332 141.67C143.74 141.668 144.099 141.412 144.225 141.032L148.529 128.03C148.655 127.65 148.52 127.229 148.195 126.984L138.893 119.965C139.357 114.488 138.885 109.05 137.58 103.84C145.303 95.7356 146.388 95.73 145.824 94.6338C139.378 82.6543 139.745 81.6352 138.481 81.7913L126.947 83.2203C123.433 79.0855 119.232 75.4641 114.439 72.5477C113.99 61.4332 114.746 60.6134 113.557 60.2167C100.275 56.0443 99.9572 55.1304 99.2051 56.1025L92.2047 65.1393C86.6259 64.5996 81.0978 64.9813 75.8179 66.1847C67.5577 58.5657 67.4505 57.3962 66.328 57.9415C54.121 64.1559 53.1959 63.7385 53.3727 64.9644L55.001 76.3252C50.8474 79.7173 47.2259 83.7938 44.3321 88.4607C33.2214 88.7296 32.1929 87.9549 31.7999 89.1414C27.7723 102.08 26.8246 102.43 27.8306 103.189L37.1306 110.208C36.6661 115.684 37.1381 121.124 38.443 126.334C30.7469 134.41 29.6338 134.438 30.1998 135.54C36.6473 147.519 36.2788 148.54 37.5424 148.384Z" fill="url(#paint1_linear_50_380)"/>
<path d="M74.4188 114.003C74.9133 106.643 81.4136 101.142 88.9103 101.738C96.4052 102.338 102.103 108.81 101.608 116.169C101.114 123.529 94.6133 129.03 87.1165 128.434C79.6179 127.838 73.9243 121.362 74.4188 114.003ZM88.7505 104.124C82.6658 103.639 77.26 108.061 76.8482 114.197C76.442 120.242 81.1202 125.561 87.2763 126.05C93.4325 126.541 98.7725 122.022 99.1787 115.977C99.5848 109.923 94.8953 104.613 88.7505 104.124Z" fill="url(#paint2_linear_50_380)"/>
<path d="M76.1544 146.961C74.2647 146.248 72.4389 145.378 70.7109 144.368C70.1919 144.063 69.9776 143.445 70.1788 142.913C70.2032 142.849 70.2333 142.787 70.269 142.726C70.6056 142.16 71.354 141.978 71.9331 142.316C73.9225 143.478 76.0491 144.441 78.2566 145.176C94.8803 150.714 112.751 142.347 118.749 126.467C118.901 126.061 119.048 125.651 119.185 125.236C124.74 108.46 115.299 90.373 98.2799 84.6964C81.2839 79.0348 62.8982 87.9061 57.3513 104.635C54.0552 114.595 56.9358 121.278 56.5484 122.303C56.1291 123.41 54.4914 123.28 54.2206 122.124C52.7408 115.802 53.0699 108.986 55.5049 102.54C66.0101 74.7289 105.587 73.0347 119.379 99.7802C123.623 108.01 124.379 117.325 121.504 126.007C121.355 126.456 121.197 126.9 121.032 127.342C117.986 135.406 112.04 141.91 104.162 145.748C95.8525 149.796 86.387 150.396 77.5101 147.44C77.0513 147.29 76.6 147.13 76.1544 146.961Z" fill="url(#paint3_linear_50_380)"/>
<path d="M144.114 62.5915C143.939 62.5257 143.808 62.364 143.793 62.1685C143.744 61.5235 143.71 60.8654 143.687 60.2148C143.678 59.9478 143.892 59.7278 144.163 59.7222C144.821 59.7071 144.644 60.3652 144.774 62.112C144.795 62.3791 144.59 62.6084 144.319 62.6235C144.248 62.6272 144.178 62.616 144.114 62.5915Z" fill="#00ABE4"/>
<path d="M143.885 54.1301C144.005 52.8929 144.178 51.6443 144.396 50.4221C144.443 50.1589 144.699 49.9878 144.966 50.0386C145.695 50.1796 145.22 50.5914 144.864 54.2373C144.838 54.5024 144.597 54.6942 144.327 54.6641C144.052 54.6359 143.858 54.3934 143.885 54.1301ZM145.848 44.5236C146.224 43.3334 146.653 42.1356 147.111 41.0037C147.358 40.3964 148.264 40.7912 148.027 41.3722C147.572 42.4986 147.156 43.6549 146.79 44.8207C146.709 45.0746 146.434 45.2137 146.175 45.131C145.91 45.0501 145.769 44.7756 145.848 44.5236ZM149.748 35.5339C150.359 34.4527 151.021 33.3828 151.716 32.3524C152.075 31.8222 152.895 32.3675 152.54 32.8958C151.857 33.9055 151.209 34.9529 150.611 36.0134C150.295 36.5699 149.434 36.0905 149.748 35.5339ZM155.499 28.227C155.293 28.0503 155.27 27.7438 155.447 27.5445C156.272 26.6118 157.147 25.7018 158.045 24.8368C158.508 24.3912 159.202 25.0888 158.739 25.5325C157.859 26.3806 157.002 27.2737 156.193 28.1857C156.016 28.385 155.706 28.4038 155.499 28.227ZM162.618 21.5689C162.453 21.3545 162.492 21.0518 162.708 20.8919C163.713 20.1473 164.76 19.4328 165.82 18.7691C166.366 18.4287 166.903 19.2448 166.358 19.587C165.318 20.2376 164.294 20.9371 163.31 21.6666C163.094 21.8265 162.784 21.7832 162.618 21.5689ZM171.256 16.7384C171.142 16.6951 171.042 16.6105 170.984 16.492C170.865 16.2495 170.967 15.9618 171.211 15.849C172.353 15.3225 173.526 14.8336 174.705 14.3955C174.959 14.3015 175.243 14.4275 175.344 14.6775C175.444 14.9276 175.32 15.2059 175.066 15.3018C173.911 15.7305 172.761 16.21 171.644 16.7271C171.516 16.7835 171.377 16.7854 171.256 16.7384ZM180.551 13.5418C180.404 13.4854 180.286 13.3632 180.244 13.2015C180.178 12.942 180.338 12.6806 180.601 12.6186C181.829 12.3309 183.083 12.0884 184.332 11.8984C184.599 11.8571 184.855 12.0376 184.9 12.3027C184.945 12.566 184.766 12.8142 184.497 12.8555C183.275 13.0435 182.046 13.2805 180.844 13.5625C180.741 13.5851 180.641 13.5757 180.551 13.5418ZM190.02 11.8439C190.009 11.5769 190.219 11.355 190.492 11.3475C191.755 11.3137 193.04 11.3306 194.305 11.3945C194.958 11.4302 194.918 12.3948 194.269 12.361C193.028 12.2971 191.77 12.282 190.533 12.314C190.261 12.3215 190.031 12.1109 190.02 11.8439ZM221.562 22.3567C218.614 20.1041 217.95 20.1417 218.354 19.5306C218.501 19.3087 218.806 19.2486 219.035 19.3952C220.099 20.0853 221.15 20.8243 222.158 21.5952C222.677 21.9919 222.081 22.7535 221.562 22.3567ZM199.903 12.487C199.948 12.2237 200.2 12.0489 200.469 12.0978C201.717 12.3196 202.973 12.5923 204.203 12.9082C204.835 13.0718 204.6 14.0063 203.968 13.8446C202.763 13.5343 201.531 13.2673 200.307 13.0492C200.036 13.0003 199.86 12.7483 199.903 12.487ZM213.198 17.2178C209.861 15.6045 209.21 15.77 209.479 15.0874C209.65 14.655 210.175 14.8167 210.115 14.8186C211.299 15.283 212.48 15.8001 213.62 16.351C213.866 16.4695 213.969 16.7609 213.853 16.9997C213.742 17.2272 213.46 17.3401 213.198 17.2178Z" fill="#00ABE4"/>
<path d="M227.526 27.7513C226.396 26.5442 225.693 26.1342 226.165 25.6736C226.355 25.4855 226.667 25.4874 226.861 25.6792C228.081 26.8807 228.692 27.3602 228.222 27.7852C228.081 27.913 227.711 27.9487 227.526 27.7513Z" fill="#00ABE4"/>
<path d="M240.694 63.0258C240.497 62.9506 240.361 62.7588 240.373 62.5407C240.407 61.9051 240.429 61.2621 240.437 60.6265C240.44 60.3595 240.662 60.1489 240.935 60.1564C241.206 60.164 241.424 60.3858 241.422 60.6528C241.414 61.2997 241.392 61.9559 241.358 62.6046C241.343 62.8716 241.112 63.0728 240.841 63.054C240.788 63.054 240.741 63.0427 240.694 63.0258Z" fill="#00ABE4"/>
<path d="M174.295 103.669C173.028 103.15 171.768 102.574 170.551 101.954C170.309 101.83 170.211 101.538 170.333 101.301C170.677 100.634 170.958 101.26 174.664 102.776C174.916 102.879 175.038 103.163 174.938 103.409C174.758 103.84 174.235 103.671 174.295 103.669ZM180.282 105.195C180.468 104.47 180.899 105.024 184.817 105.716C185.086 105.763 185.267 106.015 185.223 106.279C185.178 106.542 184.926 106.717 184.657 106.67C183.317 106.433 181.965 106.136 180.639 105.788C180.372 105.718 180.216 105.453 180.282 105.195ZM164.809 98.5298C163.686 97.7532 162.583 96.9203 161.528 96.0516C161.317 95.8786 161.287 95.574 161.46 95.369C161.947 94.7936 162.079 95.463 165.367 97.7401C165.591 97.8943 165.648 98.197 165.493 98.4151C165.339 98.6332 165.033 98.684 164.809 98.5298ZM191.139 107.358C190.947 107.285 190.812 107.098 190.817 106.886C190.825 106.619 191.05 106.412 191.323 106.421C192.66 106.476 194.014 106.474 195.345 106.418C195.618 106.406 195.849 106.613 195.866 106.88C195.883 107.147 195.674 107.373 195.403 107.384C194.044 107.442 192.664 107.444 191.299 107.388C191.24 107.388 191.188 107.377 191.139 107.358ZM201.746 106.628C201.59 106.57 201.467 106.436 201.434 106.263C201.381 106 201.554 105.748 201.821 105.701C203.13 105.466 204.446 105.173 205.73 104.829C205.991 104.759 206.264 104.912 206.339 105.169C206.414 105.427 206.264 105.694 206.003 105.763C204.692 106.115 203.35 106.414 202.013 106.655C201.919 106.67 201.828 106.658 201.746 106.628ZM211.899 103.625C211.779 103.58 211.676 103.488 211.619 103.362C211.51 103.116 211.621 102.832 211.871 102.729C213.093 102.217 214.308 101.645 215.481 101.034C215.72 100.91 216.019 101.001 216.149 101.237C216.279 101.474 216.192 101.768 215.953 101.892C214.756 102.516 213.516 103.097 212.27 103.62C212.148 103.671 212.016 103.669 211.899 103.625ZM221.113 98.5091C221.026 98.4772 220.947 98.4189 220.887 98.3399C220.725 98.1218 220.773 97.8209 220.991 97.6649C222.066 96.9015 223.121 96.0835 224.127 95.2336C224.332 95.0606 224.642 95.0851 224.821 95.29C224.999 95.4931 224.979 95.7996 224.776 95.9726C223.749 96.8413 222.673 97.6761 221.575 98.4546C221.438 98.5486 221.263 98.5655 221.113 98.5091ZM228.79 91.4298C228.213 90.9277 228.892 90.8281 231.248 87.6898C231.631 87.1784 232.427 87.7594 232.043 88.2727C231.24 89.3445 230.379 90.3937 229.484 91.394C229.307 91.5915 228.997 91.6103 228.79 91.4298ZM234.927 82.959C234.252 82.5942 234.888 82.3535 236.477 78.7678C236.734 78.1868 237.641 78.5798 237.381 79.1645C236.84 80.3886 236.238 81.6014 235.595 82.771C235.465 83.0079 235.161 83.0869 234.927 82.959ZM238.961 73.3318C238.722 73.2416 238.588 72.9858 238.658 72.7433C239.019 71.4778 239.331 70.188 239.581 68.9075C239.632 68.6461 239.891 68.4788 240.158 68.5314C240.425 68.5878 240.6 68.8417 240.55 69.103C240.294 70.4098 239.976 71.726 239.608 73.0178C239.534 73.2735 239.263 73.4202 239 73.345C238.987 73.3412 238.974 73.3356 238.961 73.3318Z" fill="#00ABE4"/>
<path d="M156.654 91.4561C155.49 90.1981 154.902 89.6942 155.392 89.2918C155.902 88.8744 156.186 89.5212 157.378 90.8092C157.562 91.0086 157.549 91.315 157.35 91.4918C157.151 91.6723 156.838 91.6554 156.654 91.4561Z" fill="#00ABE4"/>
<path d="M162.037 79.221L169.034 78.3542C171.166 80.8625 173.714 83.0606 176.623 84.8281C176.896 91.5746 176.437 92.0672 177.159 92.3079L185.223 94.9949C185.458 95.0738 185.718 94.9967 185.866 94.805L190.114 89.322C193.499 89.6491 196.851 89.4179 200.055 88.6883L205.145 93.5828C205.324 93.7539 205.591 93.7971 205.813 93.6899L213.362 90.0121C213.582 89.9049 213.708 89.6698 213.672 89.4292L212.685 82.536C215.205 80.4789 217.401 78.0063 219.157 75.1746L226.218 75.1482C226.466 75.1482 226.682 74.9922 226.759 74.7609L229.371 66.873C229.448 66.6417 229.365 66.3879 229.168 66.2375L223.525 61.9786C223.807 58.6561 223.522 55.3561 222.73 52.1953C227.414 47.2783 228.074 47.2746 227.73 46.6108C223.819 39.3434 224.042 38.7248 223.275 38.8188L216.279 39.6857C214.146 37.1773 211.598 34.9793 208.69 33.2118C208.417 26.469 208.876 25.9726 208.154 25.7319C200.095 23.201 199.903 22.6463 199.446 23.2349L195.198 28.7178C191.814 28.3907 188.461 28.6219 185.257 29.3515C180.246 24.7278 180.18 24.0189 179.5 24.3518C172.093 28.1218 171.533 27.8679 171.64 28.6125L172.627 35.5039C170.108 37.5609 167.911 40.0354 166.155 42.8653C159.414 43.0288 158.79 42.5588 158.553 43.2789C156.111 51.1273 155.535 51.3398 156.144 51.8005L161.787 56.0594C161.505 59.3819 161.791 62.6818 162.583 65.8426C157.914 70.7427 157.239 70.7596 157.583 71.4271C161.494 78.6982 161.272 79.3169 162.037 79.221Z" fill="url(#paint4_linear_50_380)"/>
<path d="M184.409 58.3646C184.71 53.8989 188.653 50.5613 193.202 50.9242C197.748 51.289 201.204 55.2151 200.905 59.6789C200.604 64.1447 196.661 67.4822 192.113 67.1193C187.563 66.7583 184.108 62.8284 184.409 58.3646ZM193.104 52.3721C189.413 52.0768 186.134 54.76 185.883 58.4831C185.637 62.1496 188.474 65.3781 192.211 65.6733C195.945 65.9704 199.185 63.2289 199.431 59.5623C199.677 55.8882 196.831 52.6673 193.104 52.3721Z" fill="url(#paint5_linear_50_380)"/>
<path d="M185.462 78.3579C184.317 77.9254 183.21 77.397 182.161 76.7841C181.845 76.5998 181.715 76.2237 181.837 75.9003C181.852 75.8608 181.869 75.8232 181.892 75.7875C182.097 75.4434 182.55 75.3325 182.901 75.5393C184.109 76.2444 185.398 76.8273 186.737 77.2748C196.821 80.6349 207.663 75.5581 211.303 65.9253C211.396 65.679 211.484 65.4308 211.568 65.1788C214.938 55.0026 209.211 44.0291 198.886 40.5863C188.574 37.151 177.42 42.5343 174.056 52.6823C172.056 58.7237 173.804 62.7795 173.569 63.4C173.316 64.0713 172.321 63.9942 172.157 63.291C171.26 59.457 171.46 55.3204 172.936 51.4093C179.31 34.5373 203.32 33.5107 211.685 49.734C214.259 54.7262 214.718 60.3765 212.973 65.6451C212.883 65.9178 212.787 66.1867 212.687 66.4555C210.839 71.3481 207.233 75.293 202.453 77.6227C197.412 80.0784 191.669 80.4431 186.284 78.6493C186.006 78.5591 185.733 78.4613 185.462 78.3579Z" fill="url(#paint6_linear_50_380)"/>
<path d="M186.464 337.712H113.542C108.432 337.712 103.712 341.437 103.712 344.021V502.318C103.712 504.901 108.43 507.445 113.542 507.445H186.464C191.575 507.445 197.491 504.901 197.491 502.318V344.021C197.491 341.437 191.575 337.712 186.464 337.712Z" fill="url(#paint7_linear_50_380)"/>
<path d="M91.7628 395.757C91.7628 394.42 87.1542 393.038 82.0435 393.038H9.94882C4.83815 393.038 0.272766 394.42 0.272766 395.757V504.845C0.272766 506.182 4.83815 507.444 9.94882 507.444H82.0454C87.1561 507.444 91.7647 506.182 91.7647 504.845V395.757H91.7628Z" fill="url(#paint8_linear_50_380)"/>
<path d="M506.57 136.743C506.57 133.458 501.074 130.982 495.963 130.982H422.979C417.868 130.982 413.936 133.46 413.936 136.743V500.528C413.936 503.813 417.868 507.444 422.979 507.444H495.963C501.074 507.444 506.57 503.811 506.57 500.528V136.743Z" fill="url(#paint9_linear_50_380)"/>
<path d="M299.979 272.853C299.979 270.433 295.571 268.197 290.461 268.197H218.364C213.253 268.197 209.632 270.435 209.632 272.853V502.797C209.632 505.217 213.253 507.446 218.364 507.446H290.461C295.571 507.446 299.979 505.215 299.979 502.797V272.853Z" fill="url(#paint10_linear_50_380)"/>
<path d="M402.626 201.809C402.626 199.094 398.578 197.289 393.467 197.289H321.371C316.26 197.289 312.278 199.094 312.278 201.809V502.758C312.278 505.473 316.258 507.444 321.371 507.444H393.467C398.578 507.444 402.626 505.473 402.626 502.758V201.809Z" fill="url(#paint11_linear_50_380)"/>
<path d="M396.679 132.654L455.038 46.7517C456.732 44.2566 460.274 44.2302 462.002 46.6991L522.167 132.601C524.237 135.557 522.212 139.712 518.703 139.712H400.18C396.698 139.712 394.665 135.617 396.679 132.654Z" fill="url(#paint12_linear_50_380)"/>
<path d="M74.4058 467.356C74.1388 467.356 73.8718 467.243 73.6856 467.023C73.1366 466.378 72.5932 465.729 72.0573 465.077C71.7263 464.674 71.7828 464.078 72.187 463.745C72.5913 463.414 73.1873 463.473 73.5183 463.875C74.0485 464.52 74.5844 465.159 75.1259 465.797C75.4644 466.195 75.4155 466.791 75.0188 467.13C74.842 467.282 74.6239 467.356 74.4058 467.356Z" fill="#00ABE4"/>
<path d="M69.6692 461.498C69.3853 461.498 69.1051 461.371 68.919 461.128C67.8961 459.797 66.8845 458.433 65.9142 457.076C65.6096 456.651 65.7093 456.061 66.1342 455.756C66.5592 455.451 67.1496 455.549 67.4542 455.976C68.4132 457.317 69.4097 458.663 70.4194 459.977C70.7372 460.391 70.6601 460.985 70.2446 461.303C70.0735 461.434 69.8704 461.498 69.6692 461.498ZM63.8402 453.344C63.5338 453.344 63.2329 453.195 63.0505 452.92C62.1198 451.52 61.2078 450.089 60.3354 448.667C60.0627 448.222 60.2019 447.641 60.6475 447.366C61.0931 447.093 61.676 447.233 61.9487 447.678C62.808 449.081 63.7105 450.491 64.6281 451.875C64.9177 452.311 64.7973 452.898 64.363 453.186C64.2013 453.293 64.0208 453.344 63.8402 453.344ZM58.5998 444.799C58.2689 444.799 57.9493 444.626 57.7744 444.318C56.9489 442.855 56.1404 441.362 55.3732 439.879C55.1326 439.414 55.3149 438.844 55.7794 438.604C56.2438 438.363 56.8135 438.546 57.0542 439.01C57.8101 440.473 58.6074 441.945 59.4215 443.387C59.6791 443.842 59.5174 444.42 59.0624 444.675C58.9176 444.76 58.7578 444.799 58.5998 444.799ZM53.9987 435.896C53.6433 435.896 53.303 435.695 53.1413 435.353C52.4268 433.833 51.7348 432.282 51.0824 430.744C50.8774 430.263 51.1031 429.708 51.5844 429.505C52.0658 429.3 52.6205 429.526 52.8235 430.007C53.4666 431.524 54.1491 433.053 54.8543 434.55C55.0761 435.024 54.8731 435.586 54.4011 435.808C54.2695 435.866 54.1341 435.896 53.9987 435.896ZM50.0877 426.669C49.706 426.669 49.3468 426.436 49.2021 426.058C48.6079 424.49 48.0382 422.888 47.5098 421.301C47.3443 420.805 47.6132 420.269 48.1077 420.105C48.606 419.94 49.14 420.209 49.3036 420.703C49.8244 422.268 50.3867 423.843 50.9714 425.389C51.1557 425.878 50.9094 426.423 50.4224 426.607C50.3133 426.649 50.2005 426.669 50.0877 426.669ZM46.9194 417.163C46.5095 417.163 46.1315 416.894 46.0112 416.478C45.5449 414.861 45.1068 413.22 44.71 411.599C44.5859 411.091 44.8962 410.58 45.4038 410.456C45.9115 410.332 46.423 410.642 46.5471 411.149C46.9382 412.746 47.3688 414.363 47.8276 415.954C47.9723 416.456 47.6828 416.98 47.1807 417.125C47.0961 417.149 47.0077 417.163 46.9194 417.163ZM44.5389 407.428C44.097 407.428 43.7022 407.118 43.6119 406.669C43.2829 405.027 42.982 403.354 42.7225 401.697C42.6417 401.182 42.9933 400.697 43.5104 400.616C44.0293 400.537 44.5107 400.889 44.5916 401.404C44.8473 403.034 45.1425 404.681 45.4659 406.296C45.5693 406.808 45.2365 407.308 44.7251 407.41C44.663 407.423 44.601 407.428 44.5389 407.428ZM42.9877 397.53C42.5119 397.53 42.1039 397.173 42.0494 396.69C41.8651 395.045 41.7128 393.352 41.5962 391.658C41.5605 391.137 41.9535 390.686 42.4743 390.65C42.9914 390.613 43.4465 391.008 43.4822 391.528C43.5969 393.194 43.7454 394.86 43.9278 396.479C43.9861 396.998 43.6119 397.466 43.093 397.525C43.0591 397.529 43.0234 397.53 42.9877 397.53ZM42.2957 387.535C41.7861 387.535 41.3649 387.129 41.3499 386.615C41.3142 385.346 41.2954 384.049 41.2954 382.761C41.2954 382.364 41.2973 381.967 41.301 381.568C41.3048 381.05 41.7278 380.63 42.2468 380.63C42.2487 380.63 42.2525 380.63 42.2543 380.63C42.7771 380.634 43.1964 381.063 43.1926 381.583C43.1888 381.976 43.187 382.368 43.187 382.759C43.187 384.03 43.2058 385.308 43.2415 386.559C43.2565 387.081 42.8447 387.516 42.3239 387.531C42.3145 387.535 42.3051 387.535 42.2957 387.535ZM42.3803 377.513C42.3671 377.513 42.3521 377.513 42.3371 377.513C41.8143 377.49 41.4101 377.048 41.4345 376.525C41.5079 374.867 41.6113 373.173 41.7429 371.49C41.7843 370.969 42.2336 370.582 42.7601 370.621C43.281 370.663 43.6702 371.118 43.6288 371.639C43.4991 373.299 43.3957 374.972 43.3242 376.61C43.3017 377.116 42.8842 377.513 42.3803 377.513ZM43.1644 367.519C43.1287 367.519 43.093 367.517 43.0572 367.513C42.5383 367.455 42.1641 366.987 42.2224 366.468C42.4085 364.809 42.6229 363.126 42.8635 361.466C42.9388 360.949 43.4164 360.588 43.9353 360.665C44.4524 360.74 44.8115 361.22 44.7363 361.737C44.4994 363.378 44.2869 365.042 44.1027 366.678C44.0481 367.162 43.6382 367.519 43.1644 367.519ZM44.5972 357.596C44.5427 357.596 44.4863 357.591 44.4317 357.581C43.9184 357.491 43.5743 357 43.6646 356.485C43.956 354.84 44.2775 353.174 44.6216 351.534C44.7288 351.023 45.2327 350.696 45.7423 350.803C46.2537 350.91 46.5809 351.412 46.4737 351.924C46.1334 353.544 45.8156 355.19 45.528 356.816C45.4452 357.275 45.0466 357.596 44.5972 357.596ZM46.6505 347.793C46.5772 347.793 46.5019 347.783 46.4267 347.766C45.919 347.644 45.6069 347.133 45.731 346.625C46.124 345.002 46.5508 343.361 46.9946 341.749C47.1337 341.245 47.6546 340.948 48.1585 341.089C48.6624 341.228 48.9576 341.749 48.8185 342.253C48.3785 343.846 47.9592 345.467 47.57 347.07C47.4647 347.503 47.0773 347.793 46.6505 347.793ZM49.3186 338.139C49.2265 338.139 49.1306 338.126 49.0385 338.096C48.5402 337.94 48.2619 337.411 48.4161 336.911C48.9144 335.311 49.4427 333.7 49.9899 332.122C50.161 331.628 50.6988 331.366 51.1933 331.537C51.686 331.708 51.9473 332.248 51.7781 332.741C51.2366 334.299 50.7138 335.892 50.2231 337.472C50.0952 337.88 49.721 338.139 49.3186 338.139ZM52.6017 328.672C52.4888 328.672 52.3741 328.651 52.2632 328.608C51.7762 328.42 51.5318 327.873 51.7198 327.386C52.3234 325.815 52.9589 324.242 53.6095 322.707C53.8126 322.226 54.3691 322.002 54.8486 322.205C55.33 322.408 55.5537 322.965 55.3507 323.444C54.7076 324.96 54.0815 326.513 53.4854 328.062C53.3406 328.44 52.9815 328.672 52.6017 328.672ZM56.5183 319.441C56.3848 319.441 56.2494 319.413 56.1197 319.353C55.6459 319.133 55.4409 318.569 55.6628 318.097C56.3754 316.568 57.12 315.041 57.8797 313.56C58.1166 313.095 58.6863 312.909 59.1526 313.148C59.6171 313.385 59.8013 313.955 59.5644 314.421C58.8161 315.884 58.0809 317.39 57.3776 318.898C57.214 319.238 56.8737 319.441 56.5183 319.441ZM139.776 314.609C138.868 314.609 137.954 314.537 137.061 314.395C136.546 314.312 136.194 313.827 136.275 313.311C136.358 312.794 136.845 312.445 137.358 312.525C138.895 312.77 140.483 312.779 142.065 312.55C142.58 312.479 143.061 312.834 143.137 313.351C143.21 313.868 142.853 314.348 142.336 314.423C141.482 314.547 140.621 314.609 139.776 314.609ZM147.006 313.065C146.64 313.065 146.29 312.849 146.136 312.49C145.931 312.01 146.154 311.454 146.634 311.249C148.054 310.643 149.462 309.85 150.819 308.895C151.246 308.594 151.837 308.695 152.138 309.122C152.438 309.549 152.337 310.139 151.91 310.44C150.445 311.474 148.918 312.332 147.377 312.99C147.256 313.041 147.13 313.065 147.006 313.065ZM132.454 312.885C132.315 312.885 132.172 312.853 132.039 312.787C130.533 312.048 129.066 311.076 127.679 309.897C127.28 309.558 127.231 308.962 127.569 308.564C127.908 308.165 128.504 308.116 128.903 308.455C130.17 309.532 131.507 310.418 132.872 311.087C133.34 311.316 133.534 311.884 133.304 312.353C133.141 312.691 132.804 312.885 132.454 312.885ZM61.0856 310.512C60.9295 310.512 60.7697 310.472 60.6249 310.391C60.168 310.136 60.0063 309.56 60.262 309.103C61.0875 307.629 61.9487 306.161 62.8192 304.743C63.0919 304.297 63.6748 304.158 64.1204 304.431C64.5661 304.703 64.7052 305.286 64.4325 305.732C63.5751 307.129 62.7271 308.575 61.9129 310.028C61.7381 310.337 61.4165 310.512 61.0856 310.512ZM155.182 307.373C154.941 307.373 154.7 307.281 154.516 307.099C154.146 306.73 154.144 306.132 154.51 305.762C155.633 304.632 156.692 303.385 157.658 302.056C157.965 301.635 158.555 301.541 158.98 301.847C159.403 302.154 159.495 302.746 159.189 303.169C158.166 304.576 157.043 305.897 155.853 307.095C155.667 307.279 155.424 307.373 155.182 307.373ZM124.815 306.527C124.538 306.527 124.266 306.407 124.078 306.176C123.474 305.429 122.878 304.623 122.306 303.778C121.906 303.188 121.515 302.577 121.143 301.96C120.872 301.513 121.017 300.932 121.462 300.661C121.91 300.392 122.491 300.535 122.762 300.98C123.117 301.569 123.491 302.154 123.873 302.716C124.414 303.515 124.978 304.278 125.548 304.984C125.877 305.39 125.813 305.986 125.407 306.313C125.234 306.458 125.024 306.527 124.815 306.527ZM66.3354 301.96C66.1549 301.96 65.9706 301.907 65.8089 301.8C65.3746 301.509 65.2599 300.92 65.5513 300.488C66.4934 299.085 67.473 297.694 68.4639 296.351C68.7742 295.93 69.3665 295.842 69.7858 296.152C70.207 296.462 70.2953 297.054 69.9851 297.474C69.0111 298.794 68.0484 300.164 67.1214 301.543C66.939 301.813 66.64 301.96 66.3354 301.96ZM161.03 299.283C160.89 299.283 160.751 299.252 160.62 299.188C160.15 298.961 159.952 298.395 160.18 297.925C160.879 296.479 161.424 294.958 161.799 293.405C161.923 292.897 162.434 292.585 162.94 292.707C163.448 292.831 163.76 293.341 163.638 293.848C163.229 295.531 162.639 297.178 161.883 298.745C161.718 299.087 161.381 299.283 161.03 299.283ZM119.62 297.987C119.26 297.987 118.916 297.782 118.758 297.432C118.059 295.896 117.433 294.294 116.899 292.669C116.735 292.173 117.006 291.639 117.502 291.475C117.997 291.314 118.533 291.583 118.696 292.079C119.208 293.638 119.808 295.176 120.479 296.648C120.695 297.124 120.486 297.684 120.011 297.9C119.883 297.959 119.751 297.987 119.62 297.987ZM72.2922 293.888C72.0835 293.888 71.8729 293.818 71.698 293.677C71.2919 293.348 71.2299 292.752 71.5589 292.346C72.6269 291.028 73.7307 289.731 74.84 288.491C75.1879 288.102 75.7858 288.068 76.1751 288.416C76.5643 288.764 76.5981 289.362 76.2503 289.751C75.1616 290.97 74.0785 292.243 73.0293 293.536C72.8394 293.768 72.5667 293.888 72.2922 293.888ZM163.365 289.614C163.357 289.614 163.352 289.614 163.344 289.614C162.821 289.603 162.408 289.17 162.419 288.648C162.423 288.499 162.423 288.35 162.423 288.202C162.423 286.743 162.274 285.289 161.983 283.879C161.878 283.368 162.207 282.867 162.718 282.762C163.228 282.655 163.73 282.986 163.835 283.497C164.153 285.034 164.314 286.617 164.314 288.204C164.314 288.365 164.313 288.529 164.309 288.691C164.297 289.204 163.876 289.614 163.365 289.614ZM116.494 288.484C116.058 288.484 115.665 288.179 115.569 287.734C115.218 286.077 114.949 284.379 114.774 282.687C114.719 282.168 115.097 281.704 115.616 281.649C116.135 281.598 116.6 281.972 116.654 282.491C116.824 284.118 117.081 285.748 117.42 287.341C117.529 287.852 117.201 288.354 116.692 288.463C116.626 288.476 116.56 288.484 116.494 288.484ZM78.9767 286.412C78.736 286.412 78.4954 286.322 78.3111 286.139C77.9407 285.772 77.9369 285.173 78.3036 284.802C79.4919 283.601 80.7216 282.42 81.957 281.297C82.3425 280.946 82.9423 280.974 83.292 281.361C83.6436 281.747 83.6154 282.347 83.2281 282.696C82.0172 283.798 80.8119 284.955 79.6461 286.134C79.4656 286.32 79.2211 286.412 78.9767 286.412ZM161.338 279.887C160.981 279.887 160.64 279.684 160.48 279.34C160.193 278.723 159.871 278.114 159.523 277.529C159.055 276.74 158.538 275.967 157.985 275.232C157.671 274.814 157.758 274.22 158.175 273.908C158.593 273.596 159.187 273.678 159.499 274.098C160.091 274.887 160.646 275.717 161.15 276.563C161.53 277.202 161.881 277.868 162.195 278.541C162.415 279.015 162.21 279.577 161.737 279.797C161.609 279.859 161.471 279.887 161.338 279.887ZM86.3945 279.673C86.12 279.673 85.8474 279.554 85.6593 279.323C85.3303 278.919 85.3923 278.323 85.7966 277.992C87.0639 276.961 88.3707 275.959 89.6813 275.01L89.8204 274.908C90.2454 274.605 90.8358 274.705 91.1385 275.13C91.4413 275.555 91.3416 276.145 90.9167 276.448L90.7888 276.54C89.5064 277.469 88.2278 278.451 86.9868 279.458C86.8157 279.603 86.6051 279.673 86.3945 279.673ZM115.458 278.533C114.936 278.533 114.513 278.108 114.513 277.588C114.515 275.899 114.603 274.184 114.778 272.488C114.83 271.969 115.295 271.591 115.816 271.644C116.335 271.698 116.713 272.163 116.66 272.682C116.491 274.314 116.406 275.963 116.404 277.588C116.404 278.11 115.981 278.533 115.458 278.533ZM94.525 273.823C94.2109 273.823 93.9045 273.667 93.7239 273.383C93.4457 272.941 93.5773 272.357 94.0192 272.078C95.4538 271.172 96.9242 270.309 98.3909 269.51C98.8497 269.26 99.425 269.429 99.6732 269.888C99.9233 270.346 99.7541 270.92 99.2953 271.17C97.8644 271.95 96.4278 272.795 95.0289 273.678C94.8728 273.776 94.6979 273.823 94.525 273.823ZM155.387 271.903C155.157 271.903 154.928 271.821 154.746 271.653C153.58 270.578 152.29 269.579 150.913 268.688C150.475 268.404 150.351 267.817 150.635 267.379C150.919 266.941 151.506 266.817 151.944 267.101C153.409 268.052 154.783 269.117 156.028 270.264C156.411 270.617 156.436 271.215 156.082 271.601C155.896 271.8 155.642 271.903 155.387 271.903ZM103.321 269.032C102.964 269.032 102.622 268.829 102.462 268.483C102.244 268.009 102.45 267.447 102.924 267.227C104.468 266.514 106.042 265.853 107.604 265.26C108.091 265.076 108.639 265.32 108.825 265.809C109.011 266.298 108.765 266.843 108.276 267.03C106.754 267.607 105.22 268.252 103.718 268.946C103.588 269.004 103.453 269.032 103.321 269.032ZM116.483 268.581C116.421 268.581 116.357 268.575 116.293 268.562C115.782 268.457 115.451 267.957 115.556 267.445C115.752 266.488 115.977 265.525 116.229 264.566C115.137 264.83 114.041 265.125 112.954 265.446C112.454 265.595 111.927 265.309 111.777 264.809C111.628 264.309 111.914 263.782 112.414 263.632C113.875 263.198 115.355 262.812 116.82 262.485C116.98 261.996 117.502 261.725 117.995 261.876C118.495 262.028 118.775 262.558 118.623 263.057C118.142 264.63 117.732 266.234 117.408 267.823C117.316 268.271 116.923 268.581 116.483 268.581ZM147.031 266.449C146.901 266.449 146.769 266.422 146.643 266.364C145.194 265.712 143.655 265.142 142.067 264.674C141.566 264.525 141.279 263.999 141.427 263.498C141.576 262.998 142.102 262.711 142.603 262.859C144.272 263.354 145.893 263.952 147.42 264.64C147.896 264.854 148.108 265.414 147.894 265.89C147.736 266.242 147.392 266.449 147.031 266.449ZM137.454 263.589C137.402 263.589 137.349 263.585 137.296 263.575C135.719 263.308 134.079 263.122 132.421 263.025C131.9 262.993 131.501 262.545 131.533 262.024C131.565 261.503 132.013 261.107 132.533 261.137C134.258 261.24 135.967 261.432 137.612 261.71C138.127 261.797 138.473 262.286 138.387 262.801C138.308 263.261 137.907 263.589 137.454 263.589ZM122.474 263.395C122.006 263.395 121.598 263.047 121.537 262.57C121.472 262.051 121.836 261.577 122.355 261.511C124.057 261.293 125.764 261.148 127.432 261.084C127.959 261.069 128.393 261.471 128.414 261.992C128.434 262.515 128.026 262.953 127.506 262.974C125.894 263.036 124.243 263.175 122.598 263.386C122.555 263.393 122.515 263.395 122.474 263.395ZM119.4 259.006C119.281 259.006 119.161 258.984 119.044 258.937C118.561 258.739 118.328 258.188 118.523 257.705C119.153 256.158 119.864 254.601 120.637 253.076C120.874 252.61 121.442 252.425 121.908 252.66C122.374 252.897 122.558 253.467 122.323 253.931C121.573 255.407 120.885 256.917 120.276 258.416C120.125 258.784 119.772 259.006 119.4 259.006ZM123.92 250.075C123.752 250.075 123.583 250.03 123.429 249.938C122.983 249.665 122.842 249.084 123.113 248.638C123.976 247.221 124.918 245.795 125.909 244.4C126.212 243.975 126.802 243.874 127.227 244.178C127.652 244.481 127.752 245.071 127.449 245.496C126.483 246.854 125.567 248.242 124.726 249.622C124.552 249.915 124.239 250.075 123.92 250.075ZM129.745 241.941C129.527 241.941 129.309 241.865 129.13 241.713C128.733 241.373 128.688 240.777 129.027 240.38C130.138 239.083 131.323 237.84 132.545 236.689C132.925 236.33 133.524 236.349 133.882 236.728C134.241 237.108 134.222 237.708 133.842 238.065C132.669 239.171 131.531 240.363 130.463 241.612C130.277 241.828 130.012 241.941 129.745 241.941ZM137.02 235.1C136.732 235.1 136.448 234.97 136.264 234.722C135.95 234.305 136.035 233.712 136.452 233.398C137.793 232.391 139.22 231.434 140.692 230.557C141.14 230.29 141.721 230.437 141.99 230.886C142.257 231.336 142.11 231.915 141.66 232.184C140.246 233.026 138.876 233.944 137.59 234.912C137.417 235.038 137.217 235.1 137.02 235.1ZM145.596 229.971C145.241 229.971 144.902 229.769 144.74 229.427C144.517 228.955 144.72 228.391 145.192 228.167C146.679 227.466 148.211 226.819 149.876 226.191C150.364 226.007 150.91 226.253 151.094 226.742C151.278 227.231 151.032 227.776 150.543 227.961C148.926 228.57 147.441 229.196 145.998 229.877C145.869 229.941 145.731 229.971 145.596 229.971ZM154.952 226.406C154.55 226.406 154.176 226.146 154.05 225.74C153.896 225.242 154.174 224.711 154.672 224.555C156.116 224.106 157.658 223.662 159.52 223.155C160.024 223.015 160.544 223.314 160.68 223.818C160.817 224.322 160.52 224.841 160.016 224.978C158.175 225.48 156.656 225.919 155.233 226.36C155.14 226.392 155.044 226.406 154.952 226.406ZM164.613 223.726C164.194 223.726 163.812 223.446 163.7 223.023C163.566 222.517 163.867 222 164.373 221.867C165.92 221.457 167.575 221.013 169.181 220.539C169.683 220.392 170.207 220.678 170.356 221.178C170.503 221.679 170.217 222.205 169.717 222.354C168.09 222.833 166.42 223.281 164.86 223.694C164.775 223.717 164.692 223.726 164.613 223.726ZM174.203 220.821C173.819 220.821 173.46 220.588 173.317 220.208C173.133 219.719 173.379 219.174 173.868 218.99C175.544 218.358 176.997 217.705 178.315 216.993C178.774 216.745 179.349 216.916 179.598 217.374C179.846 217.833 179.675 218.409 179.216 218.657C177.823 219.411 176.292 220.099 174.536 220.761C174.427 220.802 174.314 220.821 174.203 220.821ZM182.905 215.977C182.636 215.977 182.369 215.865 182.183 215.643C181.845 215.244 181.895 214.646 182.294 214.31C183.535 213.258 184.584 212.117 185.504 210.82C185.804 210.393 186.395 210.291 186.822 210.594C187.248 210.895 187.348 211.487 187.047 211.912C186.049 213.322 184.861 214.614 183.516 215.754C183.337 215.904 183.121 215.977 182.905 215.977ZM188.644 207.93C188.523 207.93 188.401 207.907 188.283 207.858C187.799 207.659 187.57 207.106 187.769 206.623C188.371 205.164 188.952 203.648 189.546 201.986C189.721 201.493 190.263 201.238 190.755 201.414C191.246 201.589 191.504 202.133 191.327 202.623C190.721 204.314 190.131 205.858 189.518 207.343C189.368 207.71 189.016 207.93 188.644 207.93ZM192.045 198.506C191.949 198.506 191.851 198.491 191.756 198.46C191.259 198.301 190.985 197.769 191.144 197.27C191.654 195.685 192.147 194.093 192.63 192.5C192.782 192 193.311 191.718 193.811 191.87C194.311 192.022 194.593 192.551 194.441 193.051C193.954 194.653 193.459 196.255 192.946 197.849C192.816 198.25 192.444 198.506 192.045 198.506ZM194.984 188.924C194.894 188.924 194.8 188.91 194.71 188.882C194.209 188.73 193.927 188.202 194.08 187.703C194.567 186.099 195.059 184.497 195.569 182.903C195.729 182.405 196.263 182.132 196.757 182.29C197.255 182.45 197.53 182.982 197.37 183.478C196.863 185.063 196.374 186.656 195.889 188.25C195.766 188.66 195.39 188.924 194.984 188.924ZM198.066 179.387C197.961 179.387 197.853 179.37 197.75 179.332C197.257 179.157 197 178.616 197.175 178.125C197.776 176.431 198.365 174.885 198.972 173.402C199.17 172.918 199.722 172.687 200.206 172.885C200.689 173.082 200.92 173.635 200.723 174.118C200.127 175.573 199.549 177.091 198.957 178.757C198.82 179.144 198.455 179.387 198.066 179.387ZM201.879 170.132C201.74 170.132 201.601 170.102 201.467 170.038C200.997 169.81 200.8 169.244 201.027 168.774C201.781 167.215 202.581 165.706 203.404 164.286C203.665 163.833 204.245 163.68 204.698 163.942C205.149 164.203 205.303 164.782 205.042 165.235C204.241 166.616 203.464 168.082 202.731 169.6C202.567 169.934 202.231 170.132 201.879 170.132ZM206.915 161.482C206.727 161.482 206.539 161.428 206.373 161.311C205.946 161.012 205.841 160.422 206.142 159.993C207.118 158.602 208.163 157.244 209.248 155.958C209.585 155.559 210.183 155.509 210.581 155.847C210.98 156.184 211.031 156.782 210.692 157.18C209.643 158.421 208.633 159.732 207.689 161.078C207.507 161.343 207.214 161.482 206.915 161.482ZM213.377 153.848C213.133 153.848 212.888 153.754 212.702 153.564C212.336 153.192 212.341 152.592 212.715 152.228C213.609 151.351 214.549 150.488 215.51 149.663C215.839 149.381 216.171 149.101 216.504 148.826C216.907 148.493 217.503 148.55 217.835 148.952C218.168 149.354 218.112 149.95 217.709 150.283C217.386 150.55 217.063 150.823 216.743 151.097C215.814 151.895 214.904 152.73 214.041 153.578C213.857 153.758 213.618 153.848 213.377 153.848ZM221.09 147.461C220.793 147.461 220.5 147.322 220.316 147.059C220.015 146.632 220.118 146.041 220.545 145.74C221.936 144.761 223.375 143.834 224.819 142.982C225.27 142.717 225.849 142.867 226.114 143.317C226.38 143.766 226.231 144.347 225.78 144.612C224.379 145.438 222.984 146.338 221.634 147.288C221.468 147.405 221.278 147.461 221.09 147.461ZM229.717 142.382C229.365 142.382 229.027 142.185 228.863 141.846C228.638 141.376 228.835 140.81 229.305 140.585C230.842 139.846 232.417 139.173 233.987 138.582C234.476 138.398 235.021 138.646 235.206 139.135C235.39 139.624 235.142 140.169 234.653 140.353C233.134 140.925 231.611 141.577 230.123 142.292C229.995 142.352 229.856 142.382 229.717 142.382ZM239.087 138.866C238.671 138.866 238.289 138.59 238.175 138.17C238.037 137.666 238.333 137.146 238.837 137.008C240.484 136.557 242.159 136.185 243.816 135.901C244.329 135.812 244.82 136.158 244.908 136.674C244.996 137.189 244.65 137.678 244.135 137.766C242.539 138.041 240.924 138.4 239.335 138.834C239.254 138.855 239.169 138.866 239.087 138.866ZM248.949 137.176C248.456 137.176 248.041 136.794 248.007 136.296C247.971 135.775 248.364 135.324 248.885 135.286C250.587 135.168 252.296 135.137 253.992 135.196C254.515 135.215 254.923 135.653 254.904 136.173C254.887 136.696 254.441 137.1 253.926 137.085C252.298 137.029 250.652 137.057 249.017 137.172C248.994 137.176 248.971 137.176 248.949 137.176Z" fill="#00ABE4"/>
<path d="M261.585 137.981C261.523 137.981 261.46 137.975 261.397 137.962C260.59 137.8 259.77 137.657 258.963 137.541C258.446 137.465 258.089 136.986 258.164 136.469C258.24 135.952 258.717 135.593 259.236 135.67C260.077 135.792 260.93 135.94 261.769 136.108C262.28 136.211 262.613 136.709 262.51 137.221C262.421 137.668 262.026 137.981 261.585 137.981Z" fill="#00ABE4"/>
<path d="M266.342 147.053C266.342 147.053 270.055 169.359 253.975 173.853C237.895 178.345 220.555 178.888 216.664 185.716C216.664 185.716 217.815 141.51 261.767 140.519L266.342 147.053Z" fill="url(#paint13_linear_50_380)"/>
<path d="M313.673 141.792C313.673 141.792 324.757 161.029 320.799 167.43C317.035 173.518 274.313 200.006 270.153 202.576C269.965 202.691 269.728 202.64 269.599 202.464C268.525 200.995 268.215 199.109 268.766 197.375C271.43 189.004 279.596 164.075 284.485 157.329C290.387 149.181 313.673 141.792 313.673 141.792Z" fill="#00ABE4"/>
<path d="M283.701 190.64C283.834 190.674 283.979 190.655 284.103 190.574C284.336 190.424 307.483 175.513 317.197 168.706C318.927 167.495 319.78 165.376 319.372 163.31C318.729 160.051 317.268 153.711 314.726 147.867C314.613 147.609 314.314 147.489 314.055 147.604C313.797 147.717 313.679 148.017 313.79 148.275C316.294 154.031 317.734 160.288 318.37 163.507C318.701 165.179 318.011 166.89 316.61 167.87C306.913 174.665 283.784 189.566 283.551 189.715C283.314 189.867 283.246 190.183 283.398 190.42C283.472 190.535 283.581 190.61 283.701 190.64Z" fill="white"/>
<path d="M283.212 100.167C283.212 100.167 268.228 83.7843 260.931 85.6214C253.988 87.3682 215.82 120.08 212.112 123.267C211.945 123.41 211.922 123.652 212.052 123.831C213.126 125.3 214.831 126.165 216.649 126.163C225.434 126.155 251.666 125.909 259.575 123.291C269.125 120.129 283.212 100.167 283.212 100.167Z" fill="#00ABE4"/>
<path d="M227.967 114.486C228.119 114.526 228.288 114.494 228.42 114.385C228.632 114.208 249.831 96.6683 259.242 89.4798C260.6 88.4419 262.44 88.3028 263.933 89.1226C266.808 90.702 272.34 93.9681 277.067 98.0954C277.278 98.2834 277.601 98.259 277.787 98.0465C277.972 97.834 277.951 97.5125 277.739 97.3264C273.181 93.3458 267.984 90.1812 264.424 88.2276C262.578 87.2141 260.301 87.3871 258.623 88.6694C249.197 95.8691 227.984 113.424 227.771 113.599C227.555 113.779 227.525 114.101 227.704 114.317C227.773 114.403 227.867 114.46 227.967 114.486Z" fill="white"/>
<path d="M373.681 97.5201C367.377 106.282 359.173 115.152 348.521 122.994C315.452 147.344 286.933 159.521 278.733 162.767C277.25 163.353 275.572 163.064 274.347 162.045C264.68 154.006 257.397 144.206 252.486 132.657C251.563 130.486 251.946 127.972 253.454 126.153C259.994 118.265 279.888 95.7526 311.667 72.638C322.283 64.9156 333.132 59.7974 343.324 56.4373C359.934 69.4997 369.078 87.1972 373.681 97.5201Z" fill="#00ABE4"/>
<path d="M343.324 56.4351C365.835 49.0117 385.128 50.1775 391.557 50.8732C392.813 51.0086 393.678 52.1894 393.426 53.4285C392.149 59.7445 387.452 78.3802 373.679 97.5217C369.078 87.197 359.934 69.4995 343.324 56.4351Z" fill="url(#paint14_linear_50_380)"/>
<path d="M320.089 79.5687C311.505 85.8508 310.012 98.4112 316.755 107.625C323.498 116.838 335.921 119.213 344.506 112.931C353.09 106.649 354.583 94.0884 347.84 84.8749C341.097 75.6633 328.672 73.2885 320.089 79.5687Z" fill="url(#paint15_linear_50_380)"/>
<path d="M322.663 82.175C315.822 87.1804 314.634 97.1892 320.006 104.53C325.378 111.871 335.278 113.764 342.118 108.759C348.959 103.753 350.147 93.7445 344.775 86.4038C339.401 79.0612 329.501 77.1696 322.663 82.175Z" fill="#083D77"/>
<path d="M341.505 103.09C341.699 103.138 341.913 103.073 342.041 102.902C345.305 98.5355 345.241 92.2835 341.885 87.6974C341.039 86.5429 340.029 85.5407 338.88 84.7171C338.653 84.5516 338.333 84.6062 338.168 84.8356C338.004 85.065 338.057 85.3827 338.284 85.5463C339.345 86.306 340.279 87.233 341.06 88.301C344.153 92.5279 344.22 98.2816 341.221 102.29C341.052 102.516 341.099 102.836 341.325 103.005C341.383 103.046 341.443 103.073 341.505 103.09Z" fill="#083D77"/>
<path d="M292.995 108.091C287.324 112.241 286.339 120.539 290.792 126.625C295.246 132.712 303.454 134.282 309.125 130.132C314.796 125.982 315.781 117.684 311.326 111.598C306.874 105.509 298.666 103.941 292.995 108.091Z" fill="url(#paint16_linear_50_380)"/>
<path d="M294.695 109.812C290.177 113.119 289.391 119.73 292.939 124.58C296.489 129.429 303.028 130.679 307.547 127.374C312.065 124.066 312.851 117.455 309.303 112.606C305.755 107.755 299.213 106.504 294.695 109.812Z" fill="url(#paint17_linear_50_380)"/>
<path d="M307.101 123.795C307.295 123.846 307.509 123.778 307.637 123.607C309.839 120.663 309.798 116.447 307.536 113.358C306.966 112.579 306.285 111.904 305.51 111.35C305.283 111.184 304.963 111.237 304.798 111.468C304.634 111.697 304.687 112.015 304.916 112.179C305.603 112.67 306.206 113.269 306.71 113.959C308.709 116.692 308.754 120.407 306.817 122.996C306.648 123.222 306.695 123.541 306.921 123.711C306.977 123.752 307.039 123.78 307.101 123.795Z" fill="#083D77"/>
<path d="M216.865 505.49C216.865 505.49 215.816 511.434 215.301 517.319C215.1 519.619 216.873 521.615 219.18 521.711C227.015 522.039 243.778 522.672 249.793 522.403C250.698 522.364 251.288 521.437 250.953 520.596C250.673 519.891 250.132 519.322 249.444 519.006L221.756 506.28L216.865 505.49Z" fill="#083D77"/>
<path d="M216.004 501.998L216.848 509.108C216.848 509.108 221.698 511.366 225.011 508.824L223.003 500.9L216.004 501.998Z" fill="url(#paint18_linear_50_380)"/>
<path d="M216.638 368.324C216.273 370.181 214.682 460.981 224.388 501.673C224.546 502.337 224.21 503.021 223.578 503.279C222.089 503.886 219.171 504.768 215.673 504.884C214.59 504.92 213.618 504.217 213.313 503.177C210.538 493.736 197.244 446.433 195.511 401.248C193.572 350.756 195.511 399.529 195.511 399.529L196.646 368.318L216.638 368.324Z" fill="url(#paint19_linear_50_380)"/>
<path d="M185.015 508.592C185.015 508.592 183.343 511.593 181.726 519.568C181.435 521.008 182.441 522.386 183.902 522.529C186.489 522.783 190.473 523.11 193.662 523.089C195.133 523.08 196.281 521.8 196.103 520.339C195.749 517.428 194.649 512.652 191.246 508.931L185.015 508.592Z" fill="#083D77"/>
<path d="M183.548 499.447L185.519 510.2C185.519 510.2 187.469 511.65 191.323 510.599L190.383 499.029L183.548 499.447Z" fill="url(#paint20_linear_50_380)"/>
<path d="M178.221 371.11C170.283 419.019 179.944 489.519 183.2 503.316C183.4 504.161 184.082 504.807 184.938 504.95C186.391 505.191 188.787 505.389 191.146 504.702C191.959 504.465 192.53 503.732 192.564 502.886C193 491.73 192.214 423.245 199.612 396.178C199.986 394.808 200.824 393.61 201.983 392.786L216.339 382.58L217.439 366.082L178.221 371.11Z" fill="url(#paint21_linear_50_380)"/>
<path d="M228.805 280.335C205.015 279.942 178.766 286.581 178.766 286.581C171.676 327.957 177.527 375.681 177.527 375.681C195.945 380.512 216.72 372.729 216.72 372.729C219.781 355.434 234.062 306.762 234.062 306.762C245.686 305.32 255.261 301.966 263.147 297.532C257.132 290.56 254.296 281.689 253.065 276.444C244.652 279.06 236.142 280.455 228.805 280.335Z" fill="url(#paint22_linear_50_380)"/>
<path d="M299.074 245.293C296.737 242.471 293.779 243.806 293.779 243.806C290.278 258.594 271.922 270.583 253.063 276.444C254.294 281.688 257.13 290.56 263.145 297.532C294.443 279.936 299.074 245.293 299.074 245.293Z" fill="url(#paint23_linear_50_380)"/>
<path d="M298.506 246.012C298.751 246.788 295.919 247.973 294.251 244.793C294.193 243.27 293.266 236.742 294.176 235.501C299.025 228.889 308.427 220.601 308.427 220.601C310.016 222.169 308.707 223.709 308.707 223.709L304.145 228.461C305.099 230.185 306.263 231.64 306.808 233.726C307.222 235.305 306.968 236.992 306.17 238.43C305.369 239.872 304.277 241.747 303.245 243.216C301.293 245.991 298.506 246.012 298.506 246.012Z" fill="url(#paint24_linear_50_380)"/>
<path d="M302.152 231.544L297.997 235.068L296.692 238.577L300.398 242.687C300.398 242.687 301.644 235.726 302.569 234.22C303.495 232.712 303.015 231.984 302.152 231.544Z" fill="url(#paint25_linear_50_380)"/>
<path d="M187.891 309.617L178.766 286.581C178.766 286.581 156.547 301.678 152.891 320.821C157.09 321.13 164.73 322.222 172.208 325.998C173.851 316.959 187.891 309.617 187.891 309.617Z" fill="#344991"/>
<path d="M207.309 331.291C207.309 331.291 182.362 345.389 173.943 333.352C172.195 330.851 171.777 328.367 172.208 326C164.73 322.224 157.09 321.132 152.892 320.823C151.79 326.594 152.373 332.731 155.763 338.934C170.508 365.907 210.609 337.443 210.609 337.443L207.309 331.291Z" fill="url(#paint26_linear_50_380)"/>
<path d="M204.312 349.128L217.928 301.578C218.082 301.039 218.543 300.646 219.101 300.58C221.568 300.292 228.717 299.484 236.97 298.786C246.911 297.946 258.456 297.263 265.355 297.844C266.336 297.927 266.928 298.965 266.492 299.847C262.57 307.783 246.431 340.07 238.352 350.645C238.085 350.995 237.669 351.2 237.229 351.196L205.638 350.903C204.717 350.893 204.059 350.011 204.312 349.128Z" fill="url(#paint27_linear_50_380)"/>
<path d="M238.382 294.664L248.253 293.019C248.78 292.931 249.21 293.435 249.043 293.94L248.065 296.902C247.981 297.159 247.755 297.346 247.486 297.381L237.987 298.651C237.496 298.716 237.09 298.269 237.203 297.788L237.808 295.202C237.872 294.924 238.1 294.711 238.382 294.664Z" fill="#00ABE4"/>
<path d="M230.988 303.023L231.801 298.786C231.881 298.361 232.233 298.04 232.664 297.996L252.602 295.973C253.274 295.906 253.811 296.52 253.653 297.177L252.386 302.455C252.285 302.878 251.918 303.182 251.484 303.203L232 304.185C231.366 304.217 230.87 303.645 230.988 303.023Z" fill="#00ABE4"/>
<path d="M207.601 337.641C207.601 337.641 205.704 329.841 206.469 327.075C207.234 324.307 208.716 320.75 213.658 321.541C218.599 322.331 224.428 324.413 224.428 324.413C224.428 324.413 224.133 328.017 220.378 326.853L222.706 328.655C222.706 328.655 222.373 331.541 219.201 329.999L221.367 332.389C221.367 332.389 220.005 334.758 217.67 333.239C215.335 331.72 214.22 338.579 207.601 337.641Z" fill="url(#paint28_linear_50_380)"/>
<path d="M204.707 261.022L197.137 282.913C197.011 283.276 197.161 283.676 197.496 283.862C199.559 285.004 206.994 288.3 215.951 282.621C216.884 282.029 217.519 281.064 217.662 279.968L220.114 261.022H204.707Z" fill="url(#paint29_linear_50_380)"/>
<path d="M221.177 240.75C221.177 240.75 229.49 256.396 228.423 262.716C227.357 269.036 217.057 268.583 208.062 263.449L201.776 246.555L221.177 240.75Z" fill="url(#paint30_linear_50_380)"/>
<path d="M208.46 255.154C208.825 254.992 208.961 254.544 208.742 254.21C208.077 253.192 206.828 251.117 206.43 249.3C206.43 249.3 204.935 248.343 210.234 247.076C215.53 245.808 223.431 243.84 225.092 239.331C226.711 234.935 222.457 223.878 215.671 232.688C215.414 233.022 214.908 233.03 214.65 232.695C213.537 231.247 210.613 228.243 206.552 230.065C202.752 231.77 202.323 234.555 202.376 235.957C202.391 236.371 202.022 236.691 201.616 236.614C199.694 236.247 195.084 235.933 192.933 240.662C191.16 244.558 192.312 246.764 193.362 247.841C193.702 248.191 193.553 248.766 193.087 248.909C191.823 249.296 190.193 250.366 190.357 253.324C190.582 257.414 195.155 257.053 196.457 256.867C196.669 256.836 196.885 256.91 197.03 257.07C198.147 258.305 203.175 263.549 208.618 264.183C209.09 264.237 209.455 263.773 209.301 263.323L206.945 256.475C206.836 256.158 206.988 255.808 207.295 255.673L208.46 255.154Z" fill="url(#paint31_linear_50_380)"/>
<path d="M209.406 256.126C209.406 256.126 203.489 252.066 203.056 255.484C202.624 258.905 208.385 260.437 211.239 259.162L209.406 256.126Z" fill="url(#paint32_linear_50_380)"/>
<defs>
<linearGradient id="paint0_linear_50_380" x1="586.722" y1="675.598" x2="122.561" y2="99.139" gradientUnits="userSpaceOnUse">
<stop stop-color="#00ABE4" stop-opacity="0.54"/>
<stop offset="1" stop-color="#00ABE4" stop-opacity="0.51"/>
</linearGradient>
<linearGradient id="paint1_linear_50_380" x1="112.088" y1="35.8942" x2="62.9075" y2="197.621" gradientUnits="userSpaceOnUse">
<stop stop-color="#083D77"/>
<stop offset="1" stop-color="#00ABE4"/>
</linearGradient>
<linearGradient id="paint2_linear_50_380" x1="102.693" y1="49.9833" x2="66.3093" y2="211.338" gradientUnits="userSpaceOnUse">
<stop stop-color="#00ABE4"/>
<stop offset="1" stop-color="#00ABE4" stop-opacity="0.47"/>
</linearGradient>
<linearGradient id="paint3_linear_50_380" x1="102.902" y1="50.0305" x2="66.5185" y2="211.386" gradientUnits="userSpaceOnUse">
<stop stop-color="#00ABE4"/>
<stop offset="1" stop-color="#00ABE4" stop-opacity="0.51"/>
</linearGradient>
<linearGradient id="paint4_linear_50_380" x1="210.621" y1="-22.1114" x2="183.194" y2="101.785" gradientUnits="userSpaceOnUse">
<stop stop-color="#083D77"/>
<stop offset="1" stop-color="#00ABE4"/>
</linearGradient>
<linearGradient id="paint5_linear_50_380" x1="201.562" y1="19.5259" x2="179.489" y2="117.414" gradientUnits="userSpaceOnUse">
<stop stop-color="#00ABE4"/>
<stop offset="1" stop-color="#00ABE4" stop-opacity="0.52"/>
</linearGradient>
<linearGradient id="paint6_linear_50_380" x1="201.689" y1="19.5546" x2="179.616" y2="117.443" gradientUnits="userSpaceOnUse">
<stop stop-color="#00ABE4"/>
<stop offset="1" stop-color="#00ABE4" stop-opacity="0.51"/>
</linearGradient>
<linearGradient id="paint7_linear_50_380" x1="183.764" y1="284.451" x2="117.569" y2="561.269" gradientUnits="userSpaceOnUse">
<stop stop-color="#00ABE4"/>
<stop offset="1" stop-color="#083D77"/>
</linearGradient>
<linearGradient id="paint8_linear_50_380" x1="65.9844" y1="366.806" x2="25.6428" y2="535.508" gradientUnits="userSpaceOnUse">
<stop stop-color="#00ABE4"/>
<stop offset="1" stop-color="#083D77"/>
</linearGradient>
<linearGradient id="paint9_linear_50_380" x1="546.991" y1="10.4823" x2="325.237" y2="798.14" gradientUnits="userSpaceOnUse">
<stop stop-color="#00ABE4" stop-opacity="0.49"/>
<stop offset="0.749483" stop-color="#083D77"/>
</linearGradient>
<linearGradient id="paint10_linear_50_380" x1="277.612" y1="292.424" x2="209.759" y2="576.173" gradientUnits="userSpaceOnUse">
<stop stop-color="#00ABE4"/>
<stop offset="1" stop-color="#083D77"/>
</linearGradient>
<linearGradient id="paint11_linear_50_380" x1="373.618" y1="284.683" x2="298.711" y2="597.929" gradientUnits="userSpaceOnUse">
<stop offset="0.0366561" stop-color="#00ABE4"/>
<stop offset="0.172699" stop-color="#00ABE4"/>
<stop offset="0.751307" stop-color="#083D77"/>
</linearGradient>
<linearGradient id="paint12_linear_50_380" x1="505.249" y1="-27.4804" x2="244.049" y2="900.289" gradientUnits="userSpaceOnUse">
<stop stop-color="#00ABE4"/>
<stop offset="1" stop-color="#00ABE4"/>
</linearGradient>
<linearGradient id="paint13_linear_50_380" x1="290.765" y1="138.567" x2="229.406" y2="168.506" gradientUnits="userSpaceOnUse">
<stop stop-color="#FCF100"/>
<stop offset="1" stop-color="#FF94B0"/>
</linearGradient>
<linearGradient id="paint14_linear_50_380" x1="343.324" y1="73.9376" x2="393.471" y2="73.9376" gradientUnits="userSpaceOnUse">
<stop stop-color="#083D77"/>
<stop offset="1" stop-color="#00ABE4"/>
</linearGradient>
<linearGradient id="paint15_linear_50_380" x1="351.78" y1="101.256" x2="312.813" y2="91.2459" gradientUnits="userSpaceOnUse">
<stop stop-color="#083D77" stop-opacity="0.52"/>
<stop offset="1" stop-color="#083D77"/>
</linearGradient>
<linearGradient id="paint16_linear_50_380" x1="313.932" y1="122.417" x2="288.189" y2="115.804" gradientUnits="userSpaceOnUse">
<stop stop-color="#083D77"/>
<stop offset="1" stop-color="#00ABE4"/>
</linearGradient>
<linearGradient id="paint17_linear_50_380" x1="307.547" y1="127.374" x2="294.696" y2="109.811" gradientUnits="userSpaceOnUse">
<stop stop-color="#00ABE4"/>
<stop offset="1" stop-color="#083D77"/>
</linearGradient>
<linearGradient id="paint18_linear_50_380" x1="216.004" y1="505.466" x2="225.01" y2="505.466" gradientUnits="userSpaceOnUse">
<stop stop-color="#F9B776"/>
<stop offset="1" stop-color="#F47960"/>
</linearGradient>
<linearGradient id="paint19_linear_50_380" x1="194.649" y1="436.604" x2="224.427" y2="436.604" gradientUnits="userSpaceOnUse">
<stop stop-color="#00ABE4"/>
<stop offset="1" stop-color="#083D77"/>
</linearGradient>
<linearGradient id="paint20_linear_50_380" x1="183.547" y1="505.004" x2="191.323" y2="505.004" gradientUnits="userSpaceOnUse">
<stop stop-color="#F9B776"/>
<stop offset="1" stop-color="#F47960"/>
</linearGradient>
<linearGradient id="paint21_linear_50_380" x1="175.166" y1="435.629" x2="217.441" y2="435.629" gradientUnits="userSpaceOnUse">
<stop stop-color="#00073F"/>
<stop offset="0.0001" stop-color="#00073F"/>
<stop offset="1" stop-color="#050025"/>
</linearGradient>
<linearGradient id="paint22_linear_50_380" x1="163.144" y1="354.554" x2="304.854" y2="252.571" gradientUnits="userSpaceOnUse">
<stop stop-color="#395398"/>
<stop offset="1" stop-color="#2B3582"/>
</linearGradient>
<linearGradient id="paint23_linear_50_380" x1="253.064" y1="270.512" x2="299.074" y2="270.512" gradientUnits="userSpaceOnUse">
<stop stop-color="#F9B776"/>
<stop offset="1" stop-color="#F47960"/>
</linearGradient>
<linearGradient id="paint24_linear_50_380" x1="288.824" y1="262.8" x2="257.951" y2="333.044" gradientUnits="userSpaceOnUse">
<stop stop-color="#F9B776"/>
<stop offset="1" stop-color="#F47960"/>
</linearGradient>
<linearGradient id="paint25_linear_50_380" x1="298.853" y1="239.406" x2="311.735" y2="219.599" gradientUnits="userSpaceOnUse">
<stop stop-color="#F9B776"/>
<stop offset="1" stop-color="#F47960"/>
</linearGradient>
<linearGradient id="paint26_linear_50_380" x1="152.385" y1="335.684" x2="210.611" y2="335.684" gradientUnits="userSpaceOnUse">
<stop stop-color="#F9B776"/>
<stop offset="1" stop-color="#F47960"/>
</linearGradient>
<linearGradient id="paint27_linear_50_380" x1="215.613" y1="348.789" x2="265.352" y2="261.519" gradientUnits="userSpaceOnUse">
<stop stop-color="#2B3582"/>
<stop offset="1" stop-color="#150E42"/>
</linearGradient>
<linearGradient id="paint28_linear_50_380" x1="206.288" y1="329.579" x2="224.428" y2="329.579" gradientUnits="userSpaceOnUse">
<stop stop-color="#F9B776"/>
<stop offset="1" stop-color="#F47960"/>
</linearGradient>
<linearGradient id="paint29_linear_50_380" x1="197.094" y1="273.437" x2="220.115" y2="273.437" gradientUnits="userSpaceOnUse">
<stop stop-color="#F9B776"/>
<stop offset="1" stop-color="#F47960"/>
</linearGradient>
<linearGradient id="paint30_linear_50_380" x1="225.59" y1="258.791" x2="200.279" y2="243.353" gradientUnits="userSpaceOnUse">
<stop stop-color="#F9B776"/>
<stop offset="1" stop-color="#F47960"/>
</linearGradient>
<linearGradient id="paint31_linear_50_380" x1="186.881" y1="227.08" x2="219.58" y2="252.907" gradientUnits="userSpaceOnUse">
<stop stop-color="#2B3582"/>
<stop offset="1" stop-color="#150E42"/>
</linearGradient>
<linearGradient id="paint32_linear_50_380" x1="218.942" y1="264.549" x2="196.169" y2="250.659" gradientUnits="userSpaceOnUse">
<stop stop-color="#F9B776"/>
<stop offset="1" stop-color="#F47960"/>
</linearGradient>
</defs>
</svg>
